…
✔ tidyr   1.2.1      ✔ stringr 1.5.0 
✔ readr   2.1.3      ✔ forcats 0.5.2 
── Conflicts ────────────────────────────────────────── tidyverse_conflicts() ──
✖ dplyr::filter() masks stats::filter()
✖ dplyr::lag()    masks stats::lag()
here() starts at /dcs04/lieber/lcolladotor/spatialDLPFC_LIBD4035/spatialDLPFC
[1] TRUE
                  V1 V2 V3 V4    V5   V6
1 ACGCCTGACACGCGCT-1  0  0  0 33439 2895
2 TACCGATCCAACACTT-1  0  1  1 33300 3136
3 ATTAAAGCGGACGAGC-1  0  0  2 33161 2894
4 GATAAGGGACGATTAG-1  0  1  3 33022 3136
5 GTGCAAATCACCAATA-1  0  0  4 32883 2894
6 TGTTGGCTGGCGGAAG-1  0  1  5 32744 3136
# A tibble: 30 × 5
   sample_id   x_min x_max y_min y_max
   <chr>       <int> <int> <int> <int>
 1 Br2720_ant   2876 21502 15782 33439
 2 Br2720_mid   3331 21929  8766 26397
 3 Br2720_post  3062 21639  8729 26340
 4 Br2743_ant   7171 26375  6302 24526
 5 Br2743_mid   4398 23722  8039 26386
 6 Br2743_post  5242 24520 11158 29455
 7 Br3942_ant   4812 23991  6108 24308
 8 Br3942_mid   4009 23246  7818 26073
 9 Br3942_post  2759 21870 11069 29197
10 Br6423_ant   4871 24084  5747 23981
# … with 20 more rows
…
