…
Joining with `by = join_by(Annotation, layers)`
[1] "Autism Spectrum Disorder" "Bipolar"                 
[3] "Bipolar Disorder"         "Control"                 
[5] "MDD"                      "PTSD"                    
[7] "Schizophrenia"            "Williams Syndrome"       
Loading objects:
  pec_dataset_colors
Joining with `by = join_by(ml)`
Warning message:
In left_join(mutate(unnest_longer(mutate(filter(mutate(pec_cell_type_tb,  :
  Each row in `x` is expected to match at most 1 row in `y`.
ℹ Row 1 of `x` matches multiple rows.
ℹ If multiple matches are expected, set `multiple = "all"` to silence this
  warning.
# A tibble: 34 × 4
   Annotation layers  layer_combo  ml   
   <fct>      <chr>   <fct>        <chr>
 1 layer      Layer1  Layer1       L1   
 2 layer      Layer2  Layer2       L2   
 3 layer      Layer3  Layer3       L3   
 4 layer      Layer4  Layer4       L4   
 5 layer      Layer5  Layer5       L5   
 6 layer      Layer6  Layer6       L6   
 7 layer      WM      WM           WM   
 8 k09        Sp09D01 Sp09D01 ~ L1 L1   
 9 k09        Sp09D02 Sp09D02 ~ L1 L1   
10 k09        Sp09D03 Sp09D03 ~ L2 L2   
# … with 24 more rows
…
